{
	"ImportPath": "bump_version",
	"GoVersion": "go1.8",
	"GodepVersion": "v79",
	"Deps": [
		{
			"ImportPath": "github.com/coreos/go-semver/semver",
			"Comment": "v0.2.0-7-g1817cd4",
			"Rev": "1817cd4bea52af76542157eeabd74b057d1a199e"
		},
		{
			"ImportPath": "github.com/urfave/cli",
			"Comment": "v1.20.0-8-gac24947",
			"Rev": "ac249472b7de27a9e8990819566d9be95ab5b816"
		}
	]
}
